{
    "Admin" : {
        "UserName": "admin",
        "Password": "password"
    },
    
    "CommonUser" : {
        "UserName": "admin",
        "Password": "password"
    },

    "BillingFormData" : {
        "UserName": "admin",
        "Password": "password"
    }
}